FIP606 - Gráficos con ggplot - 2
…
   1968L,       34L,   "887.868",   "868.465", "1.756.333",
   1967L,       33L,   "862.766",   "843.295", "1.706.062",
   1966L,       32L,   "837.030",   "817.588", "1.654.619",
   1965L,       31L,   "811.096",   "791.641", "1.602.736",
   1964L,       30L,   "785.063",   "765.598", "1.550.661",
   1963L,       29L,   "758.976",   "739.670", "1.498.647",
   1962L,       28L,   "733.055",   "713.982", "1.447.037",
   1961L,       27L,   "707.489",   "688.649", "1.396.138",
   1960L,       26L,   "682.455",   "663.847", "1.346.302"
  )
#Con esto podemos ordenar los datos de menor a mayor
ordered <- poblaciones[order(poblaciones$Fecha), ]
poblaciones

# A tibble: 63 × 5
   Fecha Densidad Hombres   Mujeres   Población
   <int>    <int> <chr>     <chr>     <chr>    
 1  2022      102 <NA>      <NA>      5.229.000
 2  2021      101 2.578.741 2.575.216 5.180.000
 3  2020      100 2.564.622 2.558.483 5.128.000
 4  2019       99 2.546.376 2.538.156 5.075.000
 5  2018       98 2.525.472 2.515.262 5.022.000
 6  2017       97 2.502.859 2.490.983 4.966.000
 7  2016       96 2.479.289 2.465.916 4.909.000
 8  2015       95 2.455.070 2.440.173 4.851.000
 9  2014       94 2.430.257 2.414.032 4.793.000
10  2013       93 2.404.428 2.387.107 4.733.000
# ℹ 53 more rows
…
